110-1 臺大 時空資料視覺化 Spatiotemporal Data Visualization HW2
…
Interpretation :

Seeing that I found “construction type”（建物型態) may be realted to the unit price of property transaction especially in HOUSE （透天厝） and store (店面(店鋪)), Does geographical difference exist? The answer is YES.

First I take a look at 1st graph for all construction type and found that in“文山區” the outlier overlapped the non-outlier, therefore, construction type should be extracted to discuss the outlier, which verify my finding previously.

Secondly, I generate 2 graphs which is house and stores repectively. When it comes to unit price outlier(extremely high), in house type, 中山區、士林區、北投區 have the highest unit price in order. In stores type, 信義區、內湖區、大安區、中正區 have the highest unit price in order. Two types hace outliers in different regions. In my personal experience, 中山區、士林區、北投區 are more of housing areas and 信義區、內湖區、大安區、中正區 are more of buisiness areas.

To sum up, construction type may be related to the unit price and are not the same within Taipei city.

house=df %>% filter(建物型態=="透天厝")
house

## # A tibble: 311 x 11
##    鄉鎮市區 都市土地使用分區 交易年月日 主要用途 建物型態 主要建材     建築完成年月
##    <chr>    <chr>            <chr>      <chr>    <chr>    <chr>        <chr>       
##  1 北投區   商               1080922    住商用   透天厝   磚造         0751111     
##  2 士林區   住               1081021    住家用   透天厝   加強磚造     0580510     
##  3 北投區   商               1081016    住家用   透天厝   加強磚造     0560927     
##  4 北投區   住               1081026    住家用   透天厝   加強磚造     0620515     
##  5 北投區   住               1081215    住家用   透天厝   加強磚造     0570115     
##  6 北投區   住               1081225    住家用   透天厝   鋼筋混凝土造 0620220     
##  7 士林區   住               1081127    住家用   透天厝   加強磚造     0500315     
##  8 士林區   住               1081201    住家用   透天厝   加強磚造     0500315     
##  9 中正區   商               1081115    住商用   透天厝   鋼筋混凝土造 0550302     
## 10 北投區   住               1081231    住家用   透天厝   加強磚造     0530605     
## # … with 301 more rows, and 4 more variables: 有無管理組織 <chr>,
## #   單價元平方公尺 <dbl>, 總樓層數 <chr>, class <chr>

store=df %>% filter(建物型態=="店面(店鋪)")
store

## # A tibble: 236 x 11
##    鄉鎮市區 都市土地使用分區 交易年月日 主要用途 建物型態   主要建材 建築完成年月
##    <chr>    <chr>            <chr>      <chr>    <chr>      <chr>    <chr>       
##  1 大安區   其他             1080826    商業用   店面(店鋪) 鋼筋混…  0710227     
##  2 信義區   住               1080822    住家用   店面(店鋪) 鋼筋混…  0600704     
##  3 內湖區   住               1081027    住家用   店面(店鋪) 鋼筋混…  0770204     
##  4 大安區   其他             1080921    商業用   店面(店鋪) 鋼筋混…  0701231     
##  5 中山區   商               1081021    商業用   店面(店鋪) 鋼筋混…  0970312     
##  6 松山區   住               1081111    住家用   店面(店鋪) 鋼筋混…  0680719     
##  7 大安區   其他             1081106    商業用   店面(店鋪) 鋼筋混…  0731204     
##  8 中正區   住               1081020    住家用   店面(店鋪) 鋼筋混…  0610627     
##  9 大安區   住               1081029    住家用   店面(店鋪) 加強磚造 0560417     
## 10 中山區   商               1081021    住商用   店面(店鋪) 鋼筋混…  0660121     
## # … with 226 more rows, and 4 more variables: 有無管理組織 <chr>,
## #   單價元平方公尺 <dbl>, 總樓層數 <chr>, class <chr>
…
